{
  "name": "OLED",
  "description": "Use small SSD1306 or SH1106 based OLED Displays",
  "keywords": "OLED, SSD1306, SH1106",
  "authors":
  {
    "name": "Hartmut Eilers"
  },
  "repository":
  {
    "type": "git",
    "url": "https://"
  },
  "version": "0.1.1",
  "frameworks": [
        "arduino"
  ],
  "platforms": "*"
}
